…
```r
#Make a histogram of the total number of steps taken each day
detach(package:plyr)
Total_Steps2<- activitydata2%>%
group_by(date)%>%
summarise(total_steps = sum(steps, na.rm=TRUE))
Total_Steps2
```

```
## # A tibble: 61 x 2
##          date total_steps
##        <fctr>       <dbl>
##  1 2012-10-01    10766.19
##  2 2012-10-02      126.00
##  3 2012-10-03    11352.00
##  4 2012-10-04    12116.00
##  5 2012-10-05    13294.00
##  6 2012-10-06    15420.00
##  7 2012-10-07    11015.00
##  8 2012-10-08    10766.19
##  9 2012-10-09    12811.00
## 10 2012-10-10     9900.00
## # ... with 51 more rows
```
…
